Choice Task Regression Analysis
…
## [1] "Subjects without enough data for ET indices within one choice option:  30"

runs_na_et

##  [1]   7  32 126 210 217 223 247 253 269 297 336 338 380 386 404 410 411 419 440 456  12
## [22]  41  74 150 171 243 268 377 384 425

grouped_n_ET %>%
    filter(run_id %in% runs_na_et)

## # A tibble: 59 x 11
## # Groups:   run_id, choseLL [59]
##    run_id choseLL     n choice_perc x_count  n_OI      OI  n_AI      AI  n_PI      PI
##     <int>   <int> <int>       <dbl>   <dbl> <int>   <dbl> <int>   <dbl> <int>   <dbl>
##  1      7       0     1      0.0125   172       1 -0.410      1 -0.0656     1   0.4  
##  2      7       1    79      0.988    103.     79 -0.0117    79 -0.0901    79   0.219
##  3     12       0     4      0.05      36       4 -0.5        4  0.5        0 NaN    
##  4     12       1    76      0.95      32.5    76  0.0526    76 -0.0263     0 NaN    
##  5     32       0     2      0.025     18       1  1          1  1          1  -1    
##  6     32       1    78      0.975     24.8    75 -0.0975    75  0.865     63  -0.645
##  7     41       0     3      0.0375    18.7     3  0.333      3  1          1  -1    
##  8     41       1    77      0.962     26.4    64 -0.0768    64  0.156     24  -0.833
##  9     74       0     5      0.0625    21       4  0.5        4  1          0 NaN    
## 10     74       1    75      0.938     25.6    68 -0.0372    68  0.985     40  -0.888
## # ... with 49 more rows
…
