Study 2 Results
…
## Warning in bind_rows_(x, .id): binding character and factor vector,
## coercing into character vector

## Warning in bind_rows_(x, .id): binding character and factor vector,
## coercing into character vector

## Warning in bind_rows_(x, .id): binding character and factor vector,
## coercing into character vector

## Warning in bind_rows_(x, .id): binding character and factor vector,
## coercing into character vector

## # A tibble: 30 x 5
## # Groups:   variable [30]
##               variable statistic p.value parameter
##                 <fctr>     <dbl>   <dbl>     <int>
##  1             marital        28    0.11        20
##  2            children        21    0.14        15
##  3          ease_acq_1        24    0.16        18
##  4          employment        40    0.16        32
##  5          belief_pay         6    0.20         4
##  6   selected_received         6    0.20         4
##  7    selected_delayed         6    0.20         4
##  8 experimenter_choose         6    0.20         4
##  9             unusual         6    0.20         4
## 10              gender         6    0.20         4
## # ... with 20 more rows, and 1 more variables: method <chr>
…
